{
  "type": "Program",
  "start": 0,
  "end": 1113,
  "loc": {
    "start": {
      "line": 1,
      "column": 0
    },
    "end": {
      "line": 42,
      "column": 0
    }
  },
  "sourceType": "module",
  "body": [
    {
      "type": "VariableDeclaration",
      "start": 0,
      "end": 36,
      "loc": {
        "start": {
          "line": 1,
          "column": 0
        },
        "end": {
          "line": 1,
          "column": 36
        }
      },
      "declarations": [
        {
          "type": "VariableDeclarator",
          "start": 4,
          "end": 36,
          "loc": {
            "start": {
              "line": 1,
              "column": 4
            },
            "end": {
              "line": 1,
              "column": 36
            }
          },
          "id": {
            "type": "Identifier",
            "start": 4,
            "end": 7,
            "loc": {
              "start": {
                "line": 1,
                "column": 4
              },
              "end": {
                "line": 1,
                "column": 7
              }
            },
            "name": "app"
          },
          "init": {
            "type": "NewExpression",
            "start": 10,
            "end": 36,
            "loc": {
              "start": {
                "line": 1,
                "column": 10
              },
              "end": {
                "line": 1,
                "column": 36
              }
            },
            "callee": {
              "type": "CallExpression",
              "start": 15,
              "end": 33,
              "loc": {
                "start": {
                  "line": 1,
                  "column": 15
                },
                "end": {
                  "line": 1,
                  "column": 33
                }
              },
              "callee": {
                "type": "Identifier",
                "start": 15,
                "end": 22,
                "loc": {
                  "start": {
                    "line": 1,
                    "column": 15
                  },
                  "end": {
                    "line": 1,
                    "column": 22
                  }
                },
                "name": "require"
              },
              "arguments": [
                {
                  "type": "Literal",
                  "start": 23,
                  "end": 32,
                  "loc": {
                    "start": {
                      "line": 1,
                      "column": 23
                    },
                    "end": {
                      "line": 1,
                      "column": 32
                    }
                  },
                  "value": "express",
                  "rawValue": "express",
                  "raw": "'express'"
                }
              ],
              "parenthesizedExpression": true
            },
            "arguments": []
          }
        }
      ],
      "kind": "var"
    },
    {
      "type": "VariableDeclaration",
      "start": 37,
      "end": 52,
      "loc": {
        "start": {
          "line": 2,
          "column": 0
        },
        "end": {
          "line": 2,
          "column": 15
        }
      },
      "declarations": [
        {
          "type": "VariableDeclarator",
          "start": 41,
          "end": 52,
          "loc": {
            "start": {
              "line": 2,
              "column": 4
            },
            "end": {
              "line": 2,
              "column": 15
            }
          },
          "id": {
            "type": "Identifier",
            "start": 41,
            "end": 45,
            "loc": {
              "start": {
                "line": 2,
                "column": 4
              },
              "end": {
                "line": 2,
                "column": 8
              }
            },
            "name": "port"
          },
          "init": {
            "type": "Literal",
            "start": 48,
            "end": 52,
            "loc": {
              "start": {
                "line": 2,
                "column": 11
              },
              "end": {
                "line": 2,
                "column": 15
              }
            },
            "value": 3000,
            "rawValue": 3000,
            "raw": "3000"
          }
        }
      ],
      "kind": "var"
    },
    {
      "type": "VariableDeclaration",
      "start": 53,
      "end": 80,
      "loc": {
        "start": {
          "line": 3,
          "column": 0
        },
        "end": {
          "line": 3,
          "column": 27
        }
      },
      "declarations": [
        {
          "type": "VariableDeclarator",
          "start": 57,
          "end": 79,
          "loc": {
            "start": {
              "line": 3,
              "column": 4
            },
            "end": {
              "line": 3,
              "column": 26
            }
          },
          "id": {
            "type": "Identifier",
            "start": 57,
            "end": 61,
            "loc": {
              "start": {
                "line": 3,
                "column": 4
              },
              "end": {
                "line": 3,
                "column": 8
              }
            },
            "name": "path"
          },
          "init": {
            "type": "CallExpression",
            "start": 64,
            "end": 79,
            "loc": {
              "start": {
                "line": 3,
                "column": 11
              },
              "end": {
                "line": 3,
                "column": 26
              }
            },
            "callee": {
              "type": "Identifier",
              "start": 64,
              "end": 71,
              "loc": {
                "start": {
                  "line": 3,
                  "column": 11
                },
                "end": {
                  "line": 3,
                  "column": 18
                }
              },
              "name": "require"
            },
            "arguments": [
              {
                "type": "Literal",
                "start": 72,
                "end": 78,
                "loc": {
                  "start": {
                    "line": 3,
                    "column": 19
                  },
                  "end": {
                    "line": 3,
                    "column": 25
                  }
                },
                "value": "path",
                "rawValue": "path",
                "raw": "'path'"
              }
            ]
          }
        }
      ],
      "kind": "var"
    },
    {
      "type": "VariableDeclaration",
      "start": 82,
      "end": 353,
      "loc": {
        "start": {
          "line": 5,
          "column": 0
        },
        "end": {
          "line": 11,
          "column": 1
        }
      },
      "declarations": [
        {
          "type": "VariableDeclarator",
          "start": 86,
          "end": 353,
          "loc": {
            "start": {
              "line": 5,
              "column": 4
            },
            "end": {
              "line": 11,
              "column": 1
            }
          },
          "id": {
            "type": "Identifier",
            "start": 86,
            "end": 102,
            "loc": {
              "start": {
                "line": 5,
                "column": 4
              },
              "end": {
                "line": 5,
                "column": 20
              }
            },
            "name": "allowCrossDomain"
          },
          "init": {
            "type": "FunctionExpression",
            "start": 105,
            "end": 353,
            "loc": {
              "start": {
                "line": 5,
                "column": 23
              },
              "end": {
                "line": 11,
                "column": 1
              }
            },
            "id": {
              "type": "Identifier",
              "start": 86,
              "end": 102,
              "loc": {
                "start": {
                  "line": 5,
                  "column": 4
                },
                "end": {
                  "line": 5,
                  "column": 20
                }
              },
              "name": "allowCrossDomain"
            },
            "generator": false,
            "expression": false,
            "async": false,
            "params": [
              {
                "type": "Identifier",
                "start": 114,
                "end": 117,
                "loc": {
                  "start": {
                    "line": 5,
                    "column": 32
                  },
                  "end": {
                    "line": 5,
                    "column": 35
                  }
                },
                "name": "req"
              },
              {
                "type": "Identifier",
                "start": 119,
                "end": 122,
                "loc": {
                  "start": {
                    "line": 5,
                    "column": 37
                  },
                  "end": {
                    "line": 5,
                    "column": 40
                  }
                },
                "name": "res"
              },
              {
                "type": "Identifier",
                "start": 124,
                "end": 128,
                "loc": {
                  "start": {
                    "line": 5,
                    "column": 42
                  },
                  "end": {
                    "line": 5,
                    "column": 46
                  }
                },
                "name": "next"
              }
            ],
            "body": {
              "type": "BlockStatement",
              "start": 130,
              "end": 353,
              "loc": {
                "start": {
                  "line": 5,
                  "column": 48
                },
                "end": {
                  "line": 11,
                  "column": 1
                }
              },
              "body": [
                {
                  "type": "ExpressionStatement",
                  "start": 136,
                  "end": 203,
                  "loc": {
                    "start": {
                      "line": 6,
                      "column": 4
                    },
                    "end": {
                      "line": 6,
                      "column": 71
                    }
                  },
                  "expression": {
                    "type": "CallExpression",
                    "start": 136,
                    "end": 202,
                    "loc": {
                      "start": {
                        "line": 6,
                        "column": 4
                      },
                      "end": {
                        "line": 6,
                        "column": 70
                      }
                    },
                    "callee": {
                      "type": "MemberExpression",
                      "start": 136,
                      "end": 146,
                      "loc": {
                        "start": {
                          "line": 6,
                          "column": 4
                        },
                        "end": {
                          "line": 6,
                          "column": 14
                        }
                      },
                      "object": {
                        "type": "Identifier",
                        "start": 136,
                        "end": 139,
                        "loc": {
                          "start": {
                            "line": 6,
                            "column": 4
                          },
                          "end": {
                            "line": 6,
                            "column": 7
                          }
                        },
                        "name": "res"
                      },
                      "property": {
                        "type": "Identifier",
                        "start": 140,
                        "end": 146,
                        "loc": {
                          "start": {
                            "line": 6,
                            "column": 8
                          },
                          "end": {
                            "line": 6,
                            "column": 14
                          }
                        },
                        "name": "header"
                      },
                      "computed": false
                    },
                    "arguments": [
                      {
                        "type": "Literal",
                        "start": 147,
                        "end": 176,
                        "loc": {
                          "start": {
                            "line": 6,
                            "column": 15
                          },
                          "end": {
                            "line": 6,
                            "column": 44
                          }
                        },
                        "value": "Access-Control-Allow-Origin",
                        "rawValue": "Access-Control-Allow-Origin",
                        "raw": "'Access-Control-Allow-Origin'"
                      },
                      {
                        "type": "Literal",
                        "start": 178,
                        "end": 201,
                        "loc": {
                          "start": {
                            "line": 6,
                            "column": 46
                          },
                          "end": {
                            "line": 6,
                            "column": 69
                          }
                        },
                        "value": "http://localhost:9080",
                        "rawValue": "http://localhost:9080",
                        "raw": "'http://localhost:9080'"
                      }
                    ]
                  }
                },
                {
                  "type": "ExpressionStatement",
                  "start": 208,
                  "end": 274,
                  "loc": {
                    "start": {
                      "line": 7,
                      "column": 4
                    },
                    "end": {
                      "line": 7,
                      "column": 70
                    }
                  },
                  "expression": {
                    "type": "CallExpression",
                    "start": 208,
                    "end": 273,
                    "loc": {
                      "start": {
                        "line": 7,
                        "column": 4
                      },
                      "end": {
                        "line": 7,
                        "column": 69
                      }
                    },
                    "callee": {
                      "type": "MemberExpression",
                      "start": 208,
                      "end": 218,
                      "loc": {
                        "start": {
                          "line": 7,
                          "column": 4
                        },
                        "end": {
                          "line": 7,
                          "column": 14
                        }
                      },
                      "object": {
                        "type": "Identifier",
                        "start": 208,
                        "end": 211,
                        "loc": {
                          "start": {
                            "line": 7,
                            "column": 4
                          },
                          "end": {
                            "line": 7,
                            "column": 7
                          }
                        },
                        "name": "res"
                      },
                      "property": {
                        "type": "Identifier",
                        "start": 212,
                        "end": 218,
                        "loc": {
                          "start": {
                            "line": 7,
                            "column": 8
                          },
                          "end": {
                            "line": 7,
                            "column": 14
                          }
                        },
                        "name": "header"
                      },
                      "computed": false
                    },
                    "arguments": [
                      {
                        "type": "Literal",
                        "start": 219,
                        "end": 249,
                        "loc": {
                          "start": {
                            "line": 7,
                            "column": 15
                          },
                          "end": {
                            "line": 7,
                            "column": 45
                          }
                        },
                        "value": "Access-Control-Allow-Methods",
                        "rawValue": "Access-Control-Allow-Methods",
                        "raw": "'Access-Control-Allow-Methods'"
                      },
                      {
                        "type": "Literal",
                        "start": 251,
                        "end": 272,
                        "loc": {
                          "start": {
                            "line": 7,
                            "column": 47
                          },
                          "end": {
                            "line": 7,
                            "column": 68
                          }
                        },
                        "value": "GET,PUT,POST,DELETE",
                        "rawValue": "GET,PUT,POST,DELETE",
                        "raw": "'GET,PUT,POST,DELETE'"
                      }
                    ]
                  }
                },
                {
                  "type": "ExpressionStatement",
                  "start": 279,
                  "end": 338,
                  "loc": {
                    "start": {
                      "line": 8,
                      "column": 4
                    },
                    "end": {
                      "line": 8,
                      "column": 63
                    }
                  },
                  "expression": {
                    "type": "CallExpression",
                    "start": 279,
                    "end": 337,
                    "loc": {
                      "start": {
                        "line": 8,
                        "column": 4
                      },
                      "end": {
                        "line": 8,
                        "column": 62
                      }
                    },
                    "callee": {
                      "type": "MemberExpression",
                      "start": 279,
                      "end": 289,
                      "loc": {
                        "start": {
                          "line": 8,
                          "column": 4
                        },
                        "end": {
                          "line": 8,
                          "column": 14
                        }
                      },
                      "object": {
                        "type": "Identifier",
                        "start": 279,
                        "end": 282,
                        "loc": {
                          "start": {
                            "line": 8,
                            "column": 4
                          },
                          "end": {
                            "line": 8,
                            "column": 7
                          }
                        },
                        "name": "res"
                      },
                      "property": {
                        "type": "Identifier",
                        "start": 283,
                        "end": 289,
                        "loc": {
                          "start": {
                            "line": 8,
                            "column": 8
                          },
                          "end": {
                            "line": 8,
                            "column": 14
                          }
                        },
                        "name": "header"
                      },
                      "computed": false
                    },
                    "arguments": [
                      {
                        "type": "Literal",
                        "start": 290,
                        "end": 320,
                        "loc": {
                          "start": {
                            "line": 8,
                            "column": 15
                          },
                          "end": {
                            "line": 8,
                            "column": 45
                          }
                        },
                        "value": "Access-Control-Allow-Headers",
                        "rawValue": "Access-Control-Allow-Headers",
                        "raw": "'Access-Control-Allow-Headers'"
                      },
                      {
                        "type": "Literal",
                        "start": 322,
                        "end": 336,
                        "loc": {
                          "start": {
                            "line": 8,
                            "column": 47
                          },
                          "end": {
                            "line": 8,
                            "column": 61
                          }
                        },
                        "value": "Content-Type",
                        "rawValue": "Content-Type",
                        "raw": "'Content-Type'"
                      }
                    ]
                  }
                },
                {
                  "type": "ExpressionStatement",
                  "start": 344,
                  "end": 351,
                  "loc": {
                    "start": {
                      "line": 10,
                      "column": 4
                    },
                    "end": {
                      "line": 10,
                      "column": 11
                    }
                  },
                  "expression": {
                    "type": "CallExpression",
                    "start": 344,
                    "end": 350,
                    "loc": {
                      "start": {
                        "line": 10,
                        "column": 4
                      },
                      "end": {
                        "line": 10,
                        "column": 10
                      }
                    },
                    "callee": {
                      "type": "Identifier",
                      "start": 344,
                      "end": 348,
                      "loc": {
                        "start": {
                          "line": 10,
                          "column": 4
                        },
                        "end": {
                          "line": 10,
                          "column": 8
                        }
                      },
                      "name": "next"
                    },
                    "arguments": []
                  }
                }
              ]
            }
          }
        }
      ],
      "kind": "var"
    },
    {
      "type": "ExpressionStatement",
      "start": 355,
      "end": 381,
      "loc": {
        "start": {
          "line": 13,
          "column": 0
        },
        "end": {
          "line": 13,
          "column": 26
        }
      },
      "expression": {
        "type": "CallExpression",
        "start": 355,
        "end": 380,
        "loc": {
          "start": {
            "line": 13,
            "column": 0
          },
          "end": {
            "line": 13,
            "column": 25
          }
        },
        "callee": {
          "type": "MemberExpression",
          "start": 355,
          "end": 362,
          "loc": {
            "start": {
              "line": 13,
              "column": 0
            },
            "end": {
              "line": 13,
              "column": 7
            }
          },
          "object": {
            "type": "Identifier",
            "start": 355,
            "end": 358,
            "loc": {
              "start": {
                "line": 13,
                "column": 0
              },
              "end": {
                "line": 13,
                "column": 3
              }
            },
            "name": "app"
          },
          "property": {
            "type": "Identifier",
            "start": 359,
            "end": 362,
            "loc": {
              "start": {
                "line": 13,
                "column": 4
              },
              "end": {
                "line": 13,
                "column": 7
              }
            },
            "name": "use"
          },
          "computed": false
        },
        "arguments": [
          {
            "type": "Identifier",
            "start": 363,
            "end": 379,
            "loc": {
              "start": {
                "line": 13,
                "column": 8
              },
              "end": {
                "line": 13,
                "column": 24
              }
            },
            "name": "allowCrossDomain"
          }
        ]
      }
    },
    {
      "type": "ExpressionStatement",
      "start": 383,
      "end": 486,
      "loc": {
        "start": {
          "line": 15,
          "column": 0
        },
        "end": {
          "line": 17,
          "column": 3
        }
      },
      "expression": {
        "type": "CallExpression",
        "start": 383,
        "end": 485,
        "loc": {
          "start": {
            "line": 15,
            "column": 0
          },
          "end": {
            "line": 17,
            "column": 2
          }
        },
        "callee": {
          "type": "MemberExpression",
          "start": 383,
          "end": 390,
          "loc": {
            "start": {
              "line": 15,
              "column": 0
            },
            "end": {
              "line": 15,
              "column": 7
            }
          },
          "object": {
            "type": "Identifier",
            "start": 383,
            "end": 386,
            "loc": {
              "start": {
                "line": 15,
                "column": 0
              },
              "end": {
                "line": 15,
                "column": 3
              }
            },
            "name": "app"
          },
          "property": {
            "type": "Identifier",
            "start": 387,
            "end": 390,
            "loc": {
              "start": {
                "line": 15,
                "column": 4
              },
              "end": {
                "line": 15,
                "column": 7
              }
            },
            "name": "get"
          },
          "computed": false
        },
        "arguments": [
          {
            "type": "Literal",
            "start": 391,
            "end": 402,
            "loc": {
              "start": {
                "line": 15,
                "column": 8
              },
              "end": {
                "line": 15,
                "column": 19
              }
            },
            "value": "/PLT_Data",
            "rawValue": "/PLT_Data",
            "raw": "\"/PLT_Data\""
          },
          {
            "type": "FunctionExpression",
            "start": 404,
            "end": 484,
            "loc": {
              "start": {
                "line": 15,
                "column": 21
              },
              "end": {
                "line": 17,
                "column": 1
              }
            },
            "id": null,
            "generator": false,
            "expression": false,
            "async": false,
            "params": [
              {
                "type": "Identifier",
                "start": 413,
                "end": 416,
                "loc": {
                  "start": {
                    "line": 15,
                    "column": 30
                  },
                  "end": {
                    "line": 15,
                    "column": 33
                  }
                },
                "name": "req"
              },
              {
                "type": "Identifier",
                "start": 418,
                "end": 421,
                "loc": {
                  "start": {
                    "line": 15,
                    "column": 35
                  },
                  "end": {
                    "line": 15,
                    "column": 38
                  }
                },
                "name": "res"
              }
            ],
            "body": {
              "type": "BlockStatement",
              "start": 423,
              "end": 484,
              "loc": {
                "start": {
                  "line": 15,
                  "column": 40
                },
                "end": {
                  "line": 17,
                  "column": 1
                }
              },
              "body": [
                {
                  "type": "ExpressionStatement",
                  "start": 427,
                  "end": 482,
                  "loc": {
                    "start": {
                      "line": 16,
                      "column": 2
                    },
                    "end": {
                      "line": 16,
                      "column": 57
                    }
                  },
                  "expression": {
                    "type": "CallExpression",
                    "start": 427,
                    "end": 482,
                    "loc": {
                      "start": {
                        "line": 16,
                        "column": 2
                      },
                      "end": {
                        "line": 16,
                        "column": 57
                      }
                    },
                    "callee": {
                      "type": "MemberExpression",
                      "start": 427,
                      "end": 439,
                      "loc": {
                        "start": {
                          "line": 16,
                          "column": 2
                        },
                        "end": {
                          "line": 16,
                          "column": 14
                        }
                      },
                      "object": {
                        "type": "Identifier",
                        "start": 427,
                        "end": 430,
                        "loc": {
                          "start": {
                            "line": 16,
                            "column": 2
                          },
                          "end": {
                            "line": 16,
                            "column": 5
                          }
                        },
                        "name": "res"
                      },
                      "property": {
                        "type": "Identifier",
                        "start": 431,
                        "end": 439,
                        "loc": {
                          "start": {
                            "line": 16,
                            "column": 6
                          },
                          "end": {
                            "line": 16,
                            "column": 14
                          }
                        },
                        "name": "sendFile"
                      },
                      "computed": false
                    },
                    "arguments": [
                      {
                        "type": "CallExpression",
                        "start": 440,
                        "end": 481,
                        "loc": {
                          "start": {
                            "line": 16,
                            "column": 15
                          },
                          "end": {
                            "line": 16,
                            "column": 56
                          }
                        },
                        "callee": {
                          "type": "MemberExpression",
                          "start": 440,
                          "end": 452,
                          "loc": {
                            "start": {
                              "line": 16,
                              "column": 15
                            },
                            "end": {
                              "line": 16,
                              "column": 27
                            }
                          },
                          "object": {
                            "type": "Identifier",
                            "start": 440,
                            "end": 444,
                            "loc": {
                              "start": {
                                "line": 16,
                                "column": 15
                              },
                              "end": {
                                "line": 16,
                                "column": 19
                              }
                            },
                            "name": "path"
                          },
                          "property": {
                            "type": "Identifier",
                            "start": 445,
                            "end": 452,
                            "loc": {
                              "start": {
                                "line": 16,
                                "column": 20
                              },
                              "end": {
                                "line": 16,
                                "column": 27
                              }
                            },
                            "name": "resolve"
                          },
                          "computed": false
                        },
                        "arguments": [
                          {
                            "type": "BinaryExpression",
                            "start": 453,
                            "end": 480,
                            "loc": {
                              "start": {
                                "line": 16,
                                "column": 28
                              },
                              "end": {
                                "line": 16,
                                "column": 55
                              }
                            },
                            "left": {
                              "type": "Identifier",
                              "start": 453,
                              "end": 462,
                              "loc": {
                                "start": {
                                  "line": 16,
                                  "column": 28
                                },
                                "end": {
                                  "line": 16,
                                  "column": 37
                                }
                              },
                              "name": "__dirname"
                            },
                            "operator": "+",
                            "right": {
                              "type": "Literal",
                              "start": 464,
                              "end": 480,
                              "loc": {
                                "start": {
                                  "line": 16,
                                  "column": 39
                                },
                                "end": {
                                  "line": 16,
                                  "column": 55
                                }
                              },
                              "value": "/json/PLT.json",
                              "rawValue": "/json/PLT.json",
                              "raw": "'/json/PLT.json'"
                            }
                          }
                        ]
                      }
                    ]
                  }
                }
              ]
            }
          }
        ]
      }
    },
    {
      "type": "ExpressionStatement",
      "start": 488,
      "end": 595,
      "loc": {
        "start": {
          "line": 19,
          "column": 0
        },
        "end": {
          "line": 21,
          "column": 3
        }
      },
      "expression": {
        "type": "CallExpression",
        "start": 488,
        "end": 594,
        "loc": {
          "start": {
            "line": 19,
            "column": 0
          },
          "end": {
            "line": 21,
            "column": 2
          }
        },
        "callee": {
          "type": "MemberExpression",
          "start": 488,
          "end": 495,
          "loc": {
            "start": {
              "line": 19,
              "column": 0
            },
            "end": {
              "line": 19,
              "column": 7
            }
          },
          "object": {
            "type": "Identifier",
            "start": 488,
            "end": 491,
            "loc": {
              "start": {
                "line": 19,
                "column": 0
              },
              "end": {
                "line": 19,
                "column": 3
              }
            },
            "name": "app"
          },
          "property": {
            "type": "Identifier",
            "start": 492,
            "end": 495,
            "loc": {
              "start": {
                "line": 19,
                "column": 4
              },
              "end": {
                "line": 19,
                "column": 7
              }
            },
            "name": "get"
          },
          "computed": false
        },
        "arguments": [
          {
            "type": "Literal",
            "start": 496,
            "end": 507,
            "loc": {
              "start": {
                "line": 19,
                "column": 8
              },
              "end": {
                "line": 19,
                "column": 19
              }
            },
            "value": "/MVM_Data",
            "rawValue": "/MVM_Data",
            "raw": "\"/MVM_Data\""
          },
          {
            "type": "FunctionExpression",
            "start": 509,
            "end": 593,
            "loc": {
              "start": {
                "line": 19,
                "column": 21
              },
              "end": {
                "line": 21,
                "column": 1
              }
            },
            "id": null,
            "generator": false,
            "expression": false,
            "async": false,
            "params": [
              {
                "type": "Identifier",
                "start": 518,
                "end": 521,
                "loc": {
                  "start": {
                    "line": 19,
                    "column": 30
                  },
                  "end": {
                    "line": 19,
                    "column": 33
                  }
                },
                "name": "req"
              },
              {
                "type": "Identifier",
                "start": 523,
                "end": 526,
                "loc": {
                  "start": {
                    "line": 19,
                    "column": 35
                  },
                  "end": {
                    "line": 19,
                    "column": 38
                  }
                },
                "name": "res"
              }
            ],
            "body": {
              "type": "BlockStatement",
              "start": 528,
              "end": 593,
              "loc": {
                "start": {
                  "line": 19,
                  "column": 40
                },
                "end": {
                  "line": 21,
                  "column": 1
                }
              },
              "body": [
                {
                  "type": "ExpressionStatement",
                  "start": 532,
                  "end": 591,
                  "loc": {
                    "start": {
                      "line": 20,
                      "column": 2
                    },
                    "end": {
                      "line": 20,
                      "column": 61
                    }
                  },
                  "expression": {
                    "type": "CallExpression",
                    "start": 532,
                    "end": 591,
                    "loc": {
                      "start": {
                        "line": 20,
                        "column": 2
                      },
                      "end": {
                        "line": 20,
                        "column": 61
                      }
                    },
                    "callee": {
                      "type": "MemberExpression",
                      "start": 532,
                      "end": 544,
                      "loc": {
                        "start": {
                          "line": 20,
                          "column": 2
                        },
                        "end": {
                          "line": 20,
                          "column": 14
                        }
                      },
                      "object": {
                        "type": "Identifier",
                        "start": 532,
                        "end": 535,
                        "loc": {
                          "start": {
                            "line": 20,
                            "column": 2
                          },
                          "end": {
                            "line": 20,
                            "column": 5
                          }
                        },
                        "name": "res"
                      },
                      "property": {
                        "type": "Identifier",
                        "start": 536,
                        "end": 544,
                        "loc": {
                          "start": {
                            "line": 20,
                            "column": 6
                          },
                          "end": {
                            "line": 20,
                            "column": 14
                          }
                        },
                        "name": "sendFile"
                      },
                      "computed": false
                    },
                    "arguments": [
                      {
                        "type": "CallExpression",
                        "start": 545,
                        "end": 590,
                        "loc": {
                          "start": {
                            "line": 20,
                            "column": 15
                          },
                          "end": {
                            "line": 20,
                            "column": 60
                          }
                        },
                        "callee": {
                          "type": "MemberExpression",
                          "start": 545,
                          "end": 557,
                          "loc": {
                            "start": {
                              "line": 20,
                              "column": 15
                            },
                            "end": {
                              "line": 20,
                              "column": 27
                            }
                          },
                          "object": {
                            "type": "Identifier",
                            "start": 545,
                            "end": 549,
                            "loc": {
                              "start": {
                                "line": 20,
                                "column": 15
                              },
                              "end": {
                                "line": 20,
                                "column": 19
                              }
                            },
                            "name": "path"
                          },
                          "property": {
                            "type": "Identifier",
                            "start": 550,
                            "end": 557,
                            "loc": {
                              "start": {
                                "line": 20,
                                "column": 20
                              },
                              "end": {
                                "line": 20,
                                "column": 27
                              }
                            },
                            "name": "resolve"
                          },
                          "computed": false
                        },
                        "arguments": [
                          {
                            "type": "BinaryExpression",
                            "start": 558,
                            "end": 589,
                            "loc": {
                              "start": {
                                "line": 20,
                                "column": 28
                              },
                              "end": {
                                "line": 20,
                                "column": 59
                              }
                            },
                            "left": {
                              "type": "Identifier",
                              "start": 558,
                              "end": 567,
                              "loc": {
                                "start": {
                                  "line": 20,
                                  "column": 28
                                },
                                "end": {
                                  "line": 20,
                                  "column": 37
                                }
                              },
                              "name": "__dirname"
                            },
                            "operator": "+",
                            "right": {
                              "type": "Literal",
                              "start": 569,
                              "end": 589,
                              "loc": {
                                "start": {
                                  "line": 20,
                                  "column": 39
                                },
                                "end": {
                                  "line": 20,
                                  "column": 59
                                }
                              },
                              "value": "/json/MVMData.json",
                              "rawValue": "/json/MVMData.json",
                              "raw": "'/json/MVMData.json'"
                            }
                          }
                        ]
                      }
                    ]
                  }
                }
              ]
            }
          }
        ]
      }
    },
    {
      "type": "ExpressionStatement",
      "start": 597,
      "end": 700,
      "loc": {
        "start": {
          "line": 23,
          "column": 0
        },
        "end": {
          "line": 25,
          "column": 3
        }
      },
      "expression": {
        "type": "CallExpression",
        "start": 597,
        "end": 699,
        "loc": {
          "start": {
            "line": 23,
            "column": 0
          },
          "end": {
            "line": 25,
            "column": 2
          }
        },
        "callee": {
          "type": "MemberExpression",
          "start": 597,
          "end": 604,
          "loc": {
            "start": {
              "line": 23,
              "column": 0
            },
            "end": {
              "line": 23,
              "column": 7
            }
          },
          "object": {
            "type": "Identifier",
            "start": 597,
            "end": 600,
            "loc": {
              "start": {
                "line": 23,
                "column": 0
              },
              "end": {
                "line": 23,
                "column": 3
              }
            },
            "name": "app"
          },
          "property": {
            "type": "Identifier",
            "start": 601,
            "end": 604,
            "loc": {
              "start": {
                "line": 23,
                "column": 4
              },
              "end": {
                "line": 23,
                "column": 7
              }
            },
            "name": "get"
          },
          "computed": false
        },
        "arguments": [
          {
            "type": "Literal",
            "start": 605,
            "end": 616,
            "loc": {
              "start": {
                "line": 23,
                "column": 8
              },
              "end": {
                "line": 23,
                "column": 19
              }
            },
            "value": "/QLT_Data",
            "rawValue": "/QLT_Data",
            "raw": "\"/QLT_Data\""
          },
          {
            "type": "FunctionExpression",
            "start": 618,
            "end": 698,
            "loc": {
              "start": {
                "line": 23,
                "column": 21
              },
              "end": {
                "line": 25,
                "column": 1
              }
            },
            "id": null,
            "generator": false,
            "expression": false,
            "async": false,
            "params": [
              {
                "type": "Identifier",
                "start": 627,
                "end": 630,
                "loc": {
                  "start": {
                    "line": 23,
                    "column": 30
                  },
                  "end": {
                    "line": 23,
                    "column": 33
                  }
                },
                "name": "req"
              },
              {
                "type": "Identifier",
                "start": 632,
                "end": 635,
                "loc": {
                  "start": {
                    "line": 23,
                    "column": 35
                  },
                  "end": {
                    "line": 23,
                    "column": 38
                  }
                },
                "name": "res"
              }
            ],
            "body": {
              "type": "BlockStatement",
              "start": 637,
              "end": 698,
              "loc": {
                "start": {
                  "line": 23,
                  "column": 40
                },
                "end": {
                  "line": 25,
                  "column": 1
                }
              },
              "body": [
                {
                  "type": "ExpressionStatement",
                  "start": 641,
                  "end": 696,
                  "loc": {
                    "start": {
                      "line": 24,
                      "column": 2
                    },
                    "end": {
                      "line": 24,
                      "column": 57
                    }
                  },
                  "expression": {
                    "type": "CallExpression",
                    "start": 641,
                    "end": 696,
                    "loc": {
                      "start": {
                        "line": 24,
                        "column": 2
                      },
                      "end": {
                        "line": 24,
                        "column": 57
                      }
                    },
                    "callee": {
                      "type": "MemberExpression",
                      "start": 641,
                      "end": 653,
                      "loc": {
                        "start": {
                          "line": 24,
                          "column": 2
                        },
                        "end": {
                          "line": 24,
                          "column": 14
                        }
                      },
                      "object": {
                        "type": "Identifier",
                        "start": 641,
                        "end": 644,
                        "loc": {
                          "start": {
                            "line": 24,
                            "column": 2
                          },
                          "end": {
                            "line": 24,
                            "column": 5
                          }
                        },
                        "name": "res"
                      },
                      "property": {
                        "type": "Identifier",
                        "start": 645,
                        "end": 653,
                        "loc": {
                          "start": {
                            "line": 24,
                            "column": 6
                          },
                          "end": {
                            "line": 24,
                            "column": 14
                          }
                        },
                        "name": "sendFile"
                      },
                      "computed": false
                    },
                    "arguments": [
                      {
                        "type": "CallExpression",
                        "start": 654,
                        "end": 695,
                        "loc": {
                          "start": {
                            "line": 24,
                            "column": 15
                          },
                          "end": {
                            "line": 24,
                            "column": 56
                          }
                        },
                        "callee": {
                          "type": "MemberExpression",
                          "start": 654,
                          "end": 666,
                          "loc": {
                            "start": {
                              "line": 24,
                              "column": 15
                            },
                            "end": {
                              "line": 24,
                              "column": 27
                            }
                          },
                          "object": {
                            "type": "Identifier",
                            "start": 654,
                            "end": 658,
                            "loc": {
                              "start": {
                                "line": 24,
                                "column": 15
                              },
                              "end": {
                                "line": 24,
                                "column": 19
                              }
                            },
                            "name": "path"
                          },
                          "property": {
                            "type": "Identifier",
                            "start": 659,
                            "end": 666,
                            "loc": {
                              "start": {
                                "line": 24,
                                "column": 20
                              },
                              "end": {
                                "line": 24,
                                "column": 27
                              }
                            },
                            "name": "resolve"
                          },
                          "computed": false
                        },
                        "arguments": [
                          {
                            "type": "BinaryExpression",
                            "start": 667,
                            "end": 694,
                            "loc": {
                              "start": {
                                "line": 24,
                                "column": 28
                              },
                              "end": {
                                "line": 24,
                                "column": 55
                              }
                            },
                            "left": {
                              "type": "Identifier",
                              "start": 667,
                              "end": 676,
                              "loc": {
                                "start": {
                                  "line": 24,
                                  "column": 28
                                },
                                "end": {
                                  "line": 24,
                                  "column": 37
                                }
                              },
                              "name": "__dirname"
                            },
                            "operator": "+",
                            "right": {
                              "type": "Literal",
                              "start": 678,
                              "end": 694,
                              "loc": {
                                "start": {
                                  "line": 24,
                                  "column": 39
                                },
                                "end": {
                                  "line": 24,
                                  "column": 55
                                }
                              },
                              "value": "/json/QLT.json",
                              "rawValue": "/json/QLT.json",
                              "raw": "'/json/QLT.json'"
                            }
                          }
                        ]
                      }
                    ]
                  }
                }
              ]
            }
          }
        ]
      }
    },
    {
      "type": "ExpressionStatement",
      "start": 702,
      "end": 805,
      "loc": {
        "start": {
          "line": 27,
          "column": 0
        },
        "end": {
          "line": 29,
          "column": 3
        }
      },
      "expression": {
        "type": "CallExpression",
        "start": 702,
        "end": 804,
        "loc": {
          "start": {
            "line": 27,
            "column": 0
          },
          "end": {
            "line": 29,
            "column": 2
          }
        },
        "callee": {
          "type": "MemberExpression",
          "start": 702,
          "end": 709,
          "loc": {
            "start": {
              "line": 27,
              "column": 0
            },
            "end": {
              "line": 27,
              "column": 7
            }
          },
          "object": {
            "type": "Identifier",
            "start": 702,
            "end": 705,
            "loc": {
              "start": {
                "line": 27,
                "column": 0
              },
              "end": {
                "line": 27,
                "column": 3
              }
            },
            "name": "app"
          },
          "property": {
            "type": "Identifier",
            "start": 706,
            "end": 709,
            "loc": {
              "start": {
                "line": 27,
                "column": 4
              },
              "end": {
                "line": 27,
                "column": 7
              }
            },
            "name": "get"
          },
          "computed": false
        },
        "arguments": [
          {
            "type": "Literal",
            "start": 710,
            "end": 721,
            "loc": {
              "start": {
                "line": 27,
                "column": 8
              },
              "end": {
                "line": 27,
                "column": 19
              }
            },
            "value": "/PMD_Data",
            "rawValue": "/PMD_Data",
            "raw": "\"/PMD_Data\""
          },
          {
            "type": "FunctionExpression",
            "start": 723,
            "end": 803,
            "loc": {
              "start": {
                "line": 27,
                "column": 21
              },
              "end": {
                "line": 29,
                "column": 1
              }
            },
            "id": null,
            "generator": false,
            "expression": false,
            "async": false,
            "params": [
              {
                "type": "Identifier",
                "start": 732,
                "end": 735,
                "loc": {
                  "start": {
                    "line": 27,
                    "column": 30
                  },
                  "end": {
                    "line": 27,
                    "column": 33
                  }
                },
                "name": "req"
              },
              {
                "type": "Identifier",
                "start": 737,
                "end": 740,
                "loc": {
                  "start": {
                    "line": 27,
                    "column": 35
                  },
                  "end": {
                    "line": 27,
                    "column": 38
                  }
                },
                "name": "res"
              }
            ],
            "body": {
              "type": "BlockStatement",
              "start": 742,
              "end": 803,
              "loc": {
                "start": {
                  "line": 27,
                  "column": 40
                },
                "end": {
                  "line": 29,
                  "column": 1
                }
              },
              "body": [
                {
                  "type": "ExpressionStatement",
                  "start": 746,
                  "end": 801,
                  "loc": {
                    "start": {
                      "line": 28,
                      "column": 2
                    },
                    "end": {
                      "line": 28,
                      "column": 57
                    }
                  },
                  "expression": {
                    "type": "CallExpression",
                    "start": 746,
                    "end": 801,
                    "loc": {
                      "start": {
                        "line": 28,
                        "column": 2
                      },
                      "end": {
                        "line": 28,
                        "column": 57
                      }
                    },
                    "callee": {
                      "type": "MemberExpression",
                      "start": 746,
                      "end": 758,
                      "loc": {
                        "start": {
                          "line": 28,
                          "column": 2
                        },
                        "end": {
                          "line": 28,
                          "column": 14
                        }
                      },
                      "object": {
                        "type": "Identifier",
                        "start": 746,
                        "end": 749,
                        "loc": {
                          "start": {
                            "line": 28,
                            "column": 2
                          },
                          "end": {
                            "line": 28,
                            "column": 5
                          }
                        },
                        "name": "res"
                      },
                      "property": {
                        "type": "Identifier",
                        "start": 750,
                        "end": 758,
                        "loc": {
                          "start": {
                            "line": 28,
                            "column": 6
                          },
                          "end": {
                            "line": 28,
                            "column": 14
                          }
                        },
                        "name": "sendFile"
                      },
                      "computed": false
                    },
                    "arguments": [
                      {
                        "type": "CallExpression",
                        "start": 759,
                        "end": 800,
                        "loc": {
                          "start": {
                            "line": 28,
                            "column": 15
                          },
                          "end": {
                            "line": 28,
                            "column": 56
                          }
                        },
                        "callee": {
                          "type": "MemberExpression",
                          "start": 759,
                          "end": 771,
                          "loc": {
                            "start": {
                              "line": 28,
                              "column": 15
                            },
                            "end": {
                              "line": 28,
                              "column": 27
                            }
                          },
                          "object": {
                            "type": "Identifier",
                            "start": 759,
                            "end": 763,
                            "loc": {
                              "start": {
                                "line": 28,
                                "column": 15
                              },
                              "end": {
                                "line": 28,
                                "column": 19
                              }
                            },
                            "name": "path"
                          },
                          "property": {
                            "type": "Identifier",
                            "start": 764,
                            "end": 771,
                            "loc": {
                              "start": {
                                "line": 28,
                                "column": 20
                              },
                              "end": {
                                "line": 28,
                                "column": 27
                              }
                            },
                            "name": "resolve"
                          },
                          "computed": false
                        },
                        "arguments": [
                          {
                            "type": "BinaryExpression",
                            "start": 772,
                            "end": 799,
                            "loc": {
                              "start": {
                                "line": 28,
                                "column": 28
                              },
                              "end": {
                                "line": 28,
                                "column": 55
                              }
                            },
                            "left": {
                              "type": "Identifier",
                              "start": 772,
                              "end": 781,
                              "loc": {
                                "start": {
                                  "line": 28,
                                  "column": 28
                                },
                                "end": {
                                  "line": 28,
                                  "column": 37
                                }
                              },
                              "name": "__dirname"
                            },
                            "operator": "+",
                            "right": {
                              "type": "Literal",
                              "start": 783,
                              "end": 799,
                              "loc": {
                                "start": {
                                  "line": 28,
                                  "column": 39
                                },
                                "end": {
                                  "line": 28,
                                  "column": 55
                                }
                              },
                              "value": "/json/PMD.json",
                              "rawValue": "/json/PMD.json",
                              "raw": "'/json/PMD.json'"
                            }
                          }
                        ]
                      }
                    ]
                  }
                }
              ]
            }
          }
        ]
      }
    },
    {
      "type": "ExpressionStatement",
      "start": 807,
      "end": 910,
      "loc": {
        "start": {
          "line": 31,
          "column": 0
        },
        "end": {
          "line": 33,
          "column": 3
        }
      },
      "expression": {
        "type": "CallExpression",
        "start": 807,
        "end": 909,
        "loc": {
          "start": {
            "line": 31,
            "column": 0
          },
          "end": {
            "line": 33,
            "column": 2
          }
        },
        "callee": {
          "type": "MemberExpression",
          "start": 807,
          "end": 814,
          "loc": {
            "start": {
              "line": 31,
              "column": 0
            },
            "end": {
              "line": 31,
              "column": 7
            }
          },
          "object": {
            "type": "Identifier",
            "start": 807,
            "end": 810,
            "loc": {
              "start": {
                "line": 31,
                "column": 0
              },
              "end": {
                "line": 31,
                "column": 3
              }
            },
            "name": "app"
          },
          "property": {
            "type": "Identifier",
            "start": 811,
            "end": 814,
            "loc": {
              "start": {
                "line": 31,
                "column": 4
              },
              "end": {
                "line": 31,
                "column": 7
              }
            },
            "name": "get"
          },
          "computed": false
        },
        "arguments": [
          {
            "type": "Literal",
            "start": 815,
            "end": 826,
            "loc": {
              "start": {
                "line": 31,
                "column": 8
              },
              "end": {
                "line": 31,
                "column": 19
              }
            },
            "value": "/CMD_Data",
            "rawValue": "/CMD_Data",
            "raw": "\"/CMD_Data\""
          },
          {
            "type": "FunctionExpression",
            "start": 828,
            "end": 908,
            "loc": {
              "start": {
                "line": 31,
                "column": 21
              },
              "end": {
                "line": 33,
                "column": 1
              }
            },
            "id": null,
            "generator": false,
            "expression": false,
            "async": false,
            "params": [
              {
                "type": "Identifier",
                "start": 837,
                "end": 840,
                "loc": {
                  "start": {
                    "line": 31,
                    "column": 30
                  },
                  "end": {
                    "line": 31,
                    "column": 33
                  }
                },
                "name": "req"
              },
              {
                "type": "Identifier",
                "start": 842,
                "end": 845,
                "loc": {
                  "start": {
                    "line": 31,
                    "column": 35
                  },
                  "end": {
                    "line": 31,
                    "column": 38
                  }
                },
                "name": "res"
              }
            ],
            "body": {
              "type": "BlockStatement",
              "start": 847,
              "end": 908,
              "loc": {
                "start": {
                  "line": 31,
                  "column": 40
                },
                "end": {
                  "line": 33,
                  "column": 1
                }
              },
              "body": [
                {
                  "type": "ExpressionStatement",
                  "start": 851,
                  "end": 906,
                  "loc": {
                    "start": {
                      "line": 32,
                      "column": 2
                    },
                    "end": {
                      "line": 32,
                      "column": 57
                    }
                  },
                  "expression": {
                    "type": "CallExpression",
                    "start": 851,
                    "end": 906,
                    "loc": {
                      "start": {
                        "line": 32,
                        "column": 2
                      },
                      "end": {
                        "line": 32,
                        "column": 57
                      }
                    },
                    "callee": {
                      "type": "MemberExpression",
                      "start": 851,
                      "end": 863,
                      "loc": {
                        "start": {
                          "line": 32,
                          "column": 2
                        },
                        "end": {
                          "line": 32,
                          "column": 14
                        }
                      },
                      "object": {
                        "type": "Identifier",
                        "start": 851,
                        "end": 854,
                        "loc": {
                          "start": {
                            "line": 32,
                            "column": 2
                          },
                          "end": {
                            "line": 32,
                            "column": 5
                          }
                        },
                        "name": "res"
                      },
                      "property": {
                        "type": "Identifier",
                        "start": 855,
                        "end": 863,
                        "loc": {
                          "start": {
                            "line": 32,
                            "column": 6
                          },
                          "end": {
                            "line": 32,
                            "column": 14
                          }
                        },
                        "name": "sendFile"
                      },
                      "computed": false
                    },
                    "arguments": [
                      {
                        "type": "CallExpression",
                        "start": 864,
                        "end": 905,
                        "loc": {
                          "start": {
                            "line": 32,
                            "column": 15
                          },
                          "end": {
                            "line": 32,
                            "column": 56
                          }
                        },
                        "callee": {
                          "type": "MemberExpression",
                          "start": 864,
                          "end": 876,
                          "loc": {
                            "start": {
                              "line": 32,
                              "column": 15
                            },
                            "end": {
                              "line": 32,
                              "column": 27
                            }
                          },
                          "object": {
                            "type": "Identifier",
                            "start": 864,
                            "end": 868,
                            "loc": {
                              "start": {
                                "line": 32,
                                "column": 15
                              },
                              "end": {
                                "line": 32,
                                "column": 19
                              }
                            },
                            "name": "path"
                          },
                          "property": {
                            "type": "Identifier",
                            "start": 869,
                            "end": 876,
                            "loc": {
                              "start": {
                                "line": 32,
                                "column": 20
                              },
                              "end": {
                                "line": 32,
                                "column": 27
                              }
                            },
                            "name": "resolve"
                          },
                          "computed": false
                        },
                        "arguments": [
                          {
                            "type": "BinaryExpression",
                            "start": 877,
                            "end": 904,
                            "loc": {
                              "start": {
                                "line": 32,
                                "column": 28
                              },
                              "end": {
                                "line": 32,
                                "column": 55
                              }
                            },
                            "left": {
                              "type": "Identifier",
                              "start": 877,
                              "end": 886,
                              "loc": {
                                "start": {
                                  "line": 32,
                                  "column": 28
                                },
                                "end": {
                                  "line": 32,
                                  "column": 37
                                }
                              },
                              "name": "__dirname"
                            },
                            "operator": "+",
                            "right": {
                              "type": "Literal",
                              "start": 888,
                              "end": 904,
                              "loc": {
                                "start": {
                                  "line": 32,
                                  "column": 39
                                },
                                "end": {
                                  "line": 32,
                                  "column": 55
                                }
                              },
                              "value": "/json/CMD.json",
                              "rawValue": "/json/CMD.json",
                              "raw": "'/json/CMD.json'"
                            }
                          }
                        ]
                      }
                    ]
                  }
                }
              ]
            }
          }
        ]
      }
    },
    {
      "type": "ExpressionStatement",
      "start": 912,
      "end": 1112,
      "loc": {
        "start": {
          "line": 35,
          "column": 0
        },
        "end": {
          "line": 41,
          "column": 2
        }
      },
      "expression": {
        "type": "CallExpression",
        "start": 912,
        "end": 1112,
        "loc": {
          "start": {
            "line": 35,
            "column": 0
          },
          "end": {
            "line": 41,
            "column": 2
          }
        },
        "callee": {
          "type": "MemberExpression",
          "start": 912,
          "end": 922,
          "loc": {
            "start": {
              "line": 35,
              "column": 0
            },
            "end": {
              "line": 35,
              "column": 10
            }
          },
          "object": {
            "type": "Identifier",
            "start": 912,
            "end": 915,
            "loc": {
              "start": {
                "line": 35,
                "column": 0
              },
              "end": {
                "line": 35,
                "column": 3
              }
            },
            "name": "app"
          },
          "property": {
            "type": "Identifier",
            "start": 916,
            "end": 922,
            "loc": {
              "start": {
                "line": 35,
                "column": 4
              },
              "end": {
                "line": 35,
                "column": 10
              }
            },
            "name": "listen"
          },
          "computed": false
        },
        "arguments": [
          {
            "type": "Identifier",
            "start": 923,
            "end": 927,
            "loc": {
              "start": {
                "line": 35,
                "column": 11
              },
              "end": {
                "line": 35,
                "column": 15
              }
            },
            "name": "port"
          },
          {
            "type": "FunctionExpression",
            "start": 929,
            "end": 1111,
            "loc": {
              "start": {
                "line": 35,
                "column": 17
              },
              "end": {
                "line": 41,
                "column": 1
              }
            },
            "id": null,
            "generator": false,
            "expression": false,
            "async": false,
            "params": [
              {
                "type": "Identifier",
                "start": 938,
                "end": 943,
                "loc": {
                  "start": {
                    "line": 35,
                    "column": 26
                  },
                  "end": {
                    "line": 35,
                    "column": 31
                  }
                },
                "name": "error"
              }
            ],
            "body": {
              "type": "BlockStatement",
              "start": 945,
              "end": 1111,
              "loc": {
                "start": {
                  "line": 35,
                  "column": 33
                },
                "end": {
                  "line": 41,
                  "column": 1
                }
              },
              "body": [
                {
                  "type": "IfStatement",
                  "start": 949,
                  "end": 1109,
                  "loc": {
                    "start": {
                      "line": 36,
                      "column": 2
                    },
                    "end": {
                      "line": 40,
                      "column": 3
                    }
                  },
                  "test": {
                    "type": "Identifier",
                    "start": 953,
                    "end": 958,
                    "loc": {
                      "start": {
                        "line": 36,
                        "column": 6
                      },
                      "end": {
                        "line": 36,
                        "column": 11
                      }
                    },
                    "name": "error"
                  },
                  "consequent": {
                    "type": "BlockStatement",
                    "start": 960,
                    "end": 990,
                    "loc": {
                      "start": {
                        "line": 36,
                        "column": 13
                      },
                      "end": {
                        "line": 38,
                        "column": 3
                      }
                    },
                    "body": [
                      {
                        "type": "ExpressionStatement",
                        "start": 966,
                        "end": 986,
                        "loc": {
                          "start": {
                            "line": 37,
                            "column": 4
                          },
                          "end": {
                            "line": 37,
                            "column": 24
                          }
                        },
                        "expression": {
                          "type": "CallExpression",
                          "start": 966,
                          "end": 986,
                          "loc": {
                            "start": {
                              "line": 37,
                              "column": 4
                            },
                            "end": {
                              "line": 37,
                              "column": 24
                            }
                          },
                          "callee": {
                            "type": "MemberExpression",
                            "start": 966,
                            "end": 979,
                            "loc": {
                              "start": {
                                "line": 37,
                                "column": 4
                              },
                              "end": {
                                "line": 37,
                                "column": 17
                              }
                            },
                            "object": {
                              "type": "Identifier",
                              "start": 966,
                              "end": 973,
                              "loc": {
                                "start": {
                                  "line": 37,
                                  "column": 4
                                },
                                "end": {
                                  "line": 37,
                                  "column": 11
                                }
                              },
                              "name": "console"
                            },
                            "property": {
                              "type": "Identifier",
                              "start": 974,
                              "end": 979,
                              "loc": {
                                "start": {
                                  "line": 37,
                                  "column": 12
                                },
                                "end": {
                                  "line": 37,
                                  "column": 17
                                }
                              },
                              "name": "error"
                            },
                            "computed": false
                          },
                          "arguments": [
                            {
                              "type": "Identifier",
                              "start": 980,
                              "end": 985,
                              "loc": {
                                "start": {
                                  "line": 37,
                                  "column": 18
                                },
                                "end": {
                                  "line": 37,
                                  "column": 23
                                }
                              },
                              "name": "error"
                            }
                          ]
                        }
                      }
                    ]
                  },
                  "alternate": {
                    "type": "BlockStatement",
                    "start": 996,
                    "end": 1109,
                    "loc": {
                      "start": {
                        "line": 38,
                        "column": 9
                      },
                      "end": {
                        "line": 40,
                        "column": 3
                      }
                    },
                    "body": [
                      {
                        "type": "ExpressionStatement",
                        "start": 1002,
                        "end": 1105,
                        "loc": {
                          "start": {
                            "line": 39,
                            "column": 4
                          },
                          "end": {
                            "line": 39,
                            "column": 107
                          }
                        },
                        "expression": {
                          "type": "CallExpression",
                          "start": 1002,
                          "end": 1105,
                          "loc": {
                            "start": {
                              "line": 39,
                              "column": 4
                            },
                            "end": {
                              "line": 39,
                              "column": 107
                            }
                          },
                          "callee": {
                            "type": "MemberExpression",
                            "start": 1002,
                            "end": 1014,
                            "loc": {
                              "start": {
                                "line": 39,
                                "column": 4
                              },
                              "end": {
                                "line": 39,
                                "column": 16
                              }
                            },
                            "object": {
                              "type": "Identifier",
                              "start": 1002,
                              "end": 1009,
                              "loc": {
                                "start": {
                                  "line": 39,
                                  "column": 4
                                },
                                "end": {
                                  "line": 39,
                                  "column": 11
                                }
                              },
                              "name": "console"
                            },
                            "property": {
                              "type": "Identifier",
                              "start": 1010,
                              "end": 1014,
                              "loc": {
                                "start": {
                                  "line": 39,
                                  "column": 12
                                },
                                "end": {
                                  "line": 39,
                                  "column": 16
                                }
                              },
                              "name": "info"
                            },
                            "computed": false
                          },
                          "arguments": [
                            {
                              "type": "Literal",
                              "start": 1015,
                              "end": 1092,
                              "loc": {
                                "start": {
                                  "line": 39,
                                  "column": 17
                                },
                                "end": {
                                  "line": 39,
                                  "column": 94
                                }
                              },
                              "value": "==> 🌎  Listening on port %s. Open up http://localhost:%s/ in your browser.",
                              "rawValue": "==> 🌎  Listening on port %s. Open up http://localhost:%s/ in your browser.",
                              "raw": "\"==> 🌎  Listening on port %s. Open up http://localhost:%s/ in your browser.\""
                            },
                            {
                              "type": "Identifier",
                              "start": 1094,
                              "end": 1098,
                              "loc": {
                                "start": {
                                  "line": 39,
                                  "column": 96
                                },
                                "end": {
                                  "line": 39,
                                  "column": 100
                                }
                              },
                              "name": "port"
                            },
                            {
                              "type": "Identifier",
                              "start": 1100,
                              "end": 1104,
                              "loc": {
                                "start": {
                                  "line": 39,
                                  "column": 102
                                },
                                "end": {
                                  "line": 39,
                                  "column": 106
                                }
                              },
                              "name": "port"
                            }
                          ]
                        }
                      }
                    ]
                  }
                }
              ]
            }
          }
        ]
      }
    }
  ]
}