{
  "type": "Program",
  "start": 0,
  "end": 578,
  "loc": {
    "start": {
      "line": 1,
      "column": 0
    },
    "end": {
      "line": 27,
      "column": 0
    }
  },
  "sourceType": "module",
  "body": [
    {
      "type": "ImportDeclaration",
      "start": 1,
      "end": 27,
      "loc": {
        "start": {
          "line": 1,
          "column": 1
        },
        "end": {
          "line": 1,
          "column": 27
        }
      },
      "specifiers": [
        {
          "type": "ImportDefaultSpecifier",
          "start": 8,
          "end": 13,
          "loc": {
            "start": {
              "line": 1,
              "column": 8
            },
            "end": {
              "line": 1,
              "column": 13
            }
          },
          "local": {
            "type": "Identifier",
            "start": 8,
            "end": 13,
            "loc": {
              "start": {
                "line": 1,
                "column": 8
              },
              "end": {
                "line": 1,
                "column": 13
              }
            },
            "name": "React"
          }
        }
      ],
      "importKind": "value",
      "source": {
        "type": "Literal",
        "start": 19,
        "end": 26,
        "loc": {
          "start": {
            "line": 1,
            "column": 19
          },
          "end": {
            "line": 1,
            "column": 26
          }
        },
        "value": "react",
        "rawValue": "react",
        "raw": "'react'"
      }
    },
    {
      "type": "ImportDeclaration",
      "start": 29,
      "end": 81,
      "loc": {
        "start": {
          "line": 2,
          "column": 1
        },
        "end": {
          "line": 2,
          "column": 53
        }
      },
      "specifiers": [
        {
          "type": "ImportDefaultSpecifier",
          "start": 36,
          "end": 42,
          "loc": {
            "start": {
              "line": 2,
              "column": 8
            },
            "end": {
              "line": 2,
              "column": 14
            }
          },
          "local": {
            "type": "Identifier",
            "start": 36,
            "end": 42,
            "loc": {
              "start": {
                "line": 2,
                "column": 8
              },
              "end": {
                "line": 2,
                "column": 14
              }
            },
            "name": "Upload"
          }
        }
      ],
      "importKind": "value",
      "source": {
        "type": "Literal",
        "start": 48,
        "end": 80,
        "loc": {
          "start": {
            "line": 2,
            "column": 20
          },
          "end": {
            "line": 2,
            "column": 52
          }
        },
        "value": "../components/uploadInProgress",
        "rawValue": "../components/uploadInProgress",
        "raw": "'../components/uploadInProgress'"
      }
    },
    {
      "type": "ImportDeclaration",
      "start": 83,
      "end": 120,
      "loc": {
        "start": {
          "line": 3,
          "column": 1
        },
        "end": {
          "line": 3,
          "column": 38
        }
      },
      "specifiers": [
        {
          "type": "ImportSpecifier",
          "start": 92,
          "end": 99,
          "loc": {
            "start": {
              "line": 3,
              "column": 10
            },
            "end": {
              "line": 3,
              "column": 17
            }
          },
          "imported": {
            "type": "Identifier",
            "start": 92,
            "end": 99,
            "loc": {
              "start": {
                "line": 3,
                "column": 10
              },
              "end": {
                "line": 3,
                "column": 17
              }
            },
            "name": "connect"
          },
          "local": {
            "type": "Identifier",
            "start": 92,
            "end": 99,
            "loc": {
              "start": {
                "line": 3,
                "column": 10
              },
              "end": {
                "line": 3,
                "column": 17
              }
            },
            "name": "connect"
          }
        }
      ],
      "importKind": "value",
      "source": {
        "type": "Literal",
        "start": 107,
        "end": 120,
        "loc": {
          "start": {
            "line": 3,
            "column": 25
          },
          "end": {
            "line": 3,
            "column": 38
          }
        },
        "value": "react-redux",
        "rawValue": "react-redux",
        "raw": "'react-redux'"
      }
    },
    {
      "type": "VariableDeclaration",
      "start": 122,
      "end": 255,
      "loc": {
        "start": {
          "line": 5,
          "column": 0
        },
        "end": {
          "line": 10,
          "column": 1
        }
      },
      "declarations": [
        {
          "type": "VariableDeclarator",
          "start": 128,
          "end": 255,
          "loc": {
            "start": {
              "line": 5,
              "column": 6
            },
            "end": {
              "line": 10,
              "column": 1
            }
          },
          "id": {
            "type": "Identifier",
            "start": 128,
            "end": 145,
            "loc": {
              "start": {
                "line": 5,
                "column": 6
              },
              "end": {
                "line": 5,
                "column": 23
              }
            },
            "name": "getSelectedValues"
          },
          "init": {
            "type": "ArrowFunctionExpression",
            "start": 148,
            "end": 255,
            "loc": {
              "start": {
                "line": 5,
                "column": 26
              },
              "end": {
                "line": 10,
                "column": 1
              }
            },
            "id": null,
            "generator": false,
            "expression": false,
            "async": false,
            "params": [
              {
                "type": "Identifier",
                "start": 149,
                "end": 158,
                "loc": {
                  "start": {
                    "line": 5,
                    "column": 27
                  },
                  "end": {
                    "line": 5,
                    "column": 36
                  }
                },
                "name": "dataArray"
              }
            ],
            "body": {
              "type": "BlockStatement",
              "start": 163,
              "end": 255,
              "loc": {
                "start": {
                  "line": 5,
                  "column": 41
                },
                "end": {
                  "line": 10,
                  "column": 1
                }
              },
              "body": [
                {
                  "type": "IfStatement",
                  "start": 167,
                  "end": 240,
                  "loc": {
                    "start": {
                      "line": 6,
                      "column": 2
                    },
                    "end": {
                      "line": 8,
                      "column": 3
                    }
                  },
                  "test": {
                    "type": "BinaryExpression",
                    "start": 171,
                    "end": 191,
                    "loc": {
                      "start": {
                        "line": 6,
                        "column": 6
                      },
                      "end": {
                        "line": 6,
                        "column": 26
                      }
                    },
                    "left": {
                      "type": "MemberExpression",
                      "start": 171,
                      "end": 187,
                      "loc": {
                        "start": {
                          "line": 6,
                          "column": 6
                        },
                        "end": {
                          "line": 6,
                          "column": 22
                        }
                      },
                      "object": {
                        "type": "Identifier",
                        "start": 171,
                        "end": 180,
                        "loc": {
                          "start": {
                            "line": 6,
                            "column": 6
                          },
                          "end": {
                            "line": 6,
                            "column": 15
                          }
                        },
                        "name": "dataArray"
                      },
                      "property": {
                        "type": "Identifier",
                        "start": 181,
                        "end": 187,
                        "loc": {
                          "start": {
                            "line": 6,
                            "column": 16
                          },
                          "end": {
                            "line": 6,
                            "column": 22
                          }
                        },
                        "name": "length"
                      },
                      "computed": false
                    },
                    "operator": ">",
                    "right": {
                      "type": "Literal",
                      "start": 190,
                      "end": 191,
                      "loc": {
                        "start": {
                          "line": 6,
                          "column": 25
                        },
                        "end": {
                          "line": 6,
                          "column": 26
                        }
                      },
                      "value": 0,
                      "rawValue": 0,
                      "raw": "0"
                    }
                  },
                  "consequent": {
                    "type": "BlockStatement",
                    "start": 193,
                    "end": 240,
                    "loc": {
                      "start": {
                        "line": 6,
                        "column": 28
                      },
                      "end": {
                        "line": 8,
                        "column": 3
                      }
                    },
                    "body": [
                      {
                        "type": "ReturnStatement",
                        "start": 199,
                        "end": 236,
                        "loc": {
                          "start": {
                            "line": 7,
                            "column": 4
                          },
                          "end": {
                            "line": 7,
                            "column": 41
                          }
                        },
                        "argument": {
                          "type": "MemberExpression",
                          "start": 206,
                          "end": 235,
                          "loc": {
                            "start": {
                              "line": 7,
                              "column": 11
                            },
                            "end": {
                              "line": 7,
                              "column": 40
                            }
                          },
                          "object": {
                            "type": "Identifier",
                            "start": 206,
                            "end": 215,
                            "loc": {
                              "start": {
                                "line": 7,
                                "column": 11
                              },
                              "end": {
                                "line": 7,
                                "column": 20
                              }
                            },
                            "name": "dataArray"
                          },
                          "property": {
                            "type": "BinaryExpression",
                            "start": 216,
                            "end": 234,
                            "loc": {
                              "start": {
                                "line": 7,
                                "column": 21
                              },
                              "end": {
                                "line": 7,
                                "column": 39
                              }
                            },
                            "left": {
                              "type": "MemberExpression",
                              "start": 216,
                              "end": 232,
                              "loc": {
                                "start": {
                                  "line": 7,
                                  "column": 21
                                },
                                "end": {
                                  "line": 7,
                                  "column": 37
                                }
                              },
                              "object": {
                                "type": "Identifier",
                                "start": 216,
                                "end": 225,
                                "loc": {
                                  "start": {
                                    "line": 7,
                                    "column": 21
                                  },
                                  "end": {
                                    "line": 7,
                                    "column": 30
                                  }
                                },
                                "name": "dataArray"
                              },
                              "property": {
                                "type": "Identifier",
                                "start": 226,
                                "end": 232,
                                "loc": {
                                  "start": {
                                    "line": 7,
                                    "column": 31
                                  },
                                  "end": {
                                    "line": 7,
                                    "column": 37
                                  }
                                },
                                "name": "length"
                              },
                              "computed": false
                            },
                            "operator": "-",
                            "right": {
                              "type": "Literal",
                              "start": 233,
                              "end": 234,
                              "loc": {
                                "start": {
                                  "line": 7,
                                  "column": 38
                                },
                                "end": {
                                  "line": 7,
                                  "column": 39
                                }
                              },
                              "value": 1,
                              "rawValue": 1,
                              "raw": "1"
                            }
                          },
                          "computed": true
                        }
                      }
                    ]
                  },
                  "alternate": null
                },
                {
                  "type": "ReturnStatement",
                  "start": 243,
                  "end": 253,
                  "loc": {
                    "start": {
                      "line": 9,
                      "column": 2
                    },
                    "end": {
                      "line": 9,
                      "column": 12
                    }
                  },
                  "argument": {
                    "type": "ArrayExpression",
                    "start": 250,
                    "end": 252,
                    "loc": {
                      "start": {
                        "line": 9,
                        "column": 9
                      },
                      "end": {
                        "line": 9,
                        "column": 11
                      }
                    },
                    "elements": []
                  }
                }
              ]
            }
          }
        }
      ],
      "kind": "const"
    },
    {
      "type": "VariableDeclaration",
      "start": 257,
      "end": 454,
      "loc": {
        "start": {
          "line": 12,
          "column": 0
        },
        "end": {
          "line": 19,
          "column": 1
        }
      },
      "declarations": [
        {
          "type": "VariableDeclarator",
          "start": 263,
          "end": 454,
          "loc": {
            "start": {
              "line": 12,
              "column": 6
            },
            "end": {
              "line": 19,
              "column": 1
            }
          },
          "id": {
            "type": "Identifier",
            "start": 263,
            "end": 278,
            "loc": {
              "start": {
                "line": 12,
                "column": 6
              },
              "end": {
                "line": 12,
                "column": 21
              }
            },
            "name": "mapStateToProps"
          },
          "init": {
            "type": "ArrowFunctionExpression",
            "start": 281,
            "end": 454,
            "loc": {
              "start": {
                "line": 12,
                "column": 24
              },
              "end": {
                "line": 19,
                "column": 1
              }
            },
            "id": null,
            "generator": false,
            "expression": false,
            "async": false,
            "params": [
              {
                "type": "Identifier",
                "start": 282,
                "end": 287,
                "loc": {
                  "start": {
                    "line": 12,
                    "column": 25
                  },
                  "end": {
                    "line": 12,
                    "column": 30
                  }
                },
                "name": "state"
              }
            ],
            "body": {
              "type": "BlockStatement",
              "start": 292,
              "end": 454,
              "loc": {
                "start": {
                  "line": 12,
                  "column": 35
                },
                "end": {
                  "line": 19,
                  "column": 1
                }
              },
              "body": [
                {
                  "type": "VariableDeclaration",
                  "start": 299,
                  "end": 366,
                  "loc": {
                    "start": {
                      "line": 13,
                      "column": 4
                    },
                    "end": {
                      "line": 13,
                      "column": 71
                    }
                  },
                  "declarations": [
                    {
                      "type": "VariableDeclarator",
                      "start": 305,
                      "end": 365,
                      "loc": {
                        "start": {
                          "line": 13,
                          "column": 10
                        },
                        "end": {
                          "line": 13,
                          "column": 70
                        }
                      },
                      "id": {
                        "type": "Identifier",
                        "start": 305,
                        "end": 315,
                        "loc": {
                          "start": {
                            "line": 13,
                            "column": 10
                          },
                          "end": {
                            "line": 13,
                            "column": 20
                          }
                        },
                        "name": "fileUpload"
                      },
                      "init": {
                        "type": "CallExpression",
                        "start": 318,
                        "end": 365,
                        "loc": {
                          "start": {
                            "line": 13,
                            "column": 23
                          },
                          "end": {
                            "line": 13,
                            "column": 70
                          }
                        },
                        "callee": {
                          "type": "Identifier",
                          "start": 318,
                          "end": 335,
                          "loc": {
                            "start": {
                              "line": 13,
                              "column": 23
                            },
                            "end": {
                              "line": 13,
                              "column": 40
                            }
                          },
                          "name": "getSelectedValues"
                        },
                        "arguments": [
                          {
                            "type": "MemberExpression",
                            "start": 336,
                            "end": 364,
                            "loc": {
                              "start": {
                                "line": 13,
                                "column": 41
                              },
                              "end": {
                                "line": 13,
                                "column": 69
                              }
                            },
                            "object": {
                              "type": "Identifier",
                              "start": 336,
                              "end": 341,
                              "loc": {
                                "start": {
                                  "line": 13,
                                  "column": 41
                                },
                                "end": {
                                  "line": 13,
                                  "column": 46
                                }
                              },
                              "name": "state"
                            },
                            "property": {
                              "type": "Identifier",
                              "start": 342,
                              "end": 364,
                              "loc": {
                                "start": {
                                  "line": 13,
                                  "column": 47
                                },
                                "end": {
                                  "line": 13,
                                  "column": 69
                                }
                              },
                              "name": "CheckJobStatusReducers"
                            },
                            "computed": false
                          }
                        ]
                      }
                    }
                  ],
                  "kind": "const"
                },
                {
                  "type": "ReturnStatement",
                  "start": 372,
                  "end": 452,
                  "loc": {
                    "start": {
                      "line": 15,
                      "column": 4
                    },
                    "end": {
                      "line": 18,
                      "column": 5
                    }
                  },
                  "argument": {
                    "type": "ObjectExpression",
                    "start": 379,
                    "end": 452,
                    "loc": {
                      "start": {
                        "line": 15,
                        "column": 11
                      },
                      "end": {
                        "line": 18,
                        "column": 5
                      }
                    },
                    "properties": [
                      {
                        "type": "Property",
                        "start": 387,
                        "end": 416,
                        "loc": {
                          "start": {
                            "line": 16,
                            "column": 6
                          },
                          "end": {
                            "line": 16,
                            "column": 35
                          }
                        },
                        "method": false,
                        "shorthand": false,
                        "computed": false,
                        "key": {
                          "type": "Identifier",
                          "start": 387,
                          "end": 391,
                          "loc": {
                            "start": {
                              "line": 16,
                              "column": 6
                            },
                            "end": {
                              "line": 16,
                              "column": 10
                            }
                          },
                          "name": "name"
                        },
                        "value": {
                          "type": "MemberExpression",
                          "start": 393,
                          "end": 416,
                          "loc": {
                            "start": {
                              "line": 16,
                              "column": 12
                            },
                            "end": {
                              "line": 16,
                              "column": 35
                            }
                          },
                          "object": {
                            "type": "MemberExpression",
                            "start": 393,
                            "end": 411,
                            "loc": {
                              "start": {
                                "line": 16,
                                "column": 12
                              },
                              "end": {
                                "line": 16,
                                "column": 30
                              }
                            },
                            "object": {
                              "type": "MemberExpression",
                              "start": 393,
                              "end": 408,
                              "loc": {
                                "start": {
                                  "line": 16,
                                  "column": 12
                                },
                                "end": {
                                  "line": 16,
                                  "column": 27
                                }
                              },
                              "object": {
                                "type": "Identifier",
                                "start": 393,
                                "end": 403,
                                "loc": {
                                  "start": {
                                    "line": 16,
                                    "column": 12
                                  },
                                  "end": {
                                    "line": 16,
                                    "column": 22
                                  }
                                },
                                "name": "fileUpload"
                              },
                              "property": {
                                "type": "Identifier",
                                "start": 404,
                                "end": 408,
                                "loc": {
                                  "start": {
                                    "line": 16,
                                    "column": 23
                                  },
                                  "end": {
                                    "line": 16,
                                    "column": 27
                                  }
                                },
                                "name": "rows"
                              },
                              "computed": false
                            },
                            "property": {
                              "type": "Literal",
                              "start": 409,
                              "end": 410,
                              "loc": {
                                "start": {
                                  "line": 16,
                                  "column": 28
                                },
                                "end": {
                                  "line": 16,
                                  "column": 29
                                }
                              },
                              "value": 0,
                              "rawValue": 0,
                              "raw": "0"
                            },
                            "computed": true
                          },
                          "property": {
                            "type": "Identifier",
                            "start": 412,
                            "end": 416,
                            "loc": {
                              "start": {
                                "line": 16,
                                "column": 31
                              },
                              "end": {
                                "line": 16,
                                "column": 35
                              }
                            },
                            "name": "Name"
                          },
                          "computed": false
                        },
                        "kind": "init"
                      },
                      {
                        "type": "Property",
                        "start": 424,
                        "end": 445,
                        "loc": {
                          "start": {
                            "line": 17,
                            "column": 6
                          },
                          "end": {
                            "line": 17,
                            "column": 27
                          }
                        },
                        "method": false,
                        "shorthand": false,
                        "computed": false,
                        "key": {
                          "type": "Identifier",
                          "start": 424,
                          "end": 428,
                          "loc": {
                            "start": {
                              "line": 17,
                              "column": 6
                            },
                            "end": {
                              "line": 17,
                              "column": 10
                            }
                          },
                          "name": "file"
                        },
                        "value": {
                          "type": "MemberExpression",
                          "start": 430,
                          "end": 445,
                          "loc": {
                            "start": {
                              "line": 17,
                              "column": 12
                            },
                            "end": {
                              "line": 17,
                              "column": 27
                            }
                          },
                          "object": {
                            "type": "Identifier",
                            "start": 430,
                            "end": 440,
                            "loc": {
                              "start": {
                                "line": 17,
                                "column": 12
                              },
                              "end": {
                                "line": 17,
                                "column": 22
                              }
                            },
                            "name": "fileUpload"
                          },
                          "property": {
                            "type": "Identifier",
                            "start": 441,
                            "end": 445,
                            "loc": {
                              "start": {
                                "line": 17,
                                "column": 23
                              },
                              "end": {
                                "line": 17,
                                "column": 27
                              }
                            },
                            "name": "file"
                          },
                          "computed": false
                        },
                        "kind": "init"
                      }
                    ]
                  }
                }
              ]
            }
          }
        }
      ],
      "kind": "const"
    },
    {
      "type": "Identifier",
      "start": 456,
      "end": 534,
      "loc": {
        "start": {
          "line": 21,
          "column": 0
        },
        "end": {
          "line": 24,
          "column": 11
        }
      },
      "declarations": [
        {
          "type": "VariableDeclarator",
          "start": 462,
          "end": 534,
          "loc": {
            "start": {
              "line": 21,
              "column": 6
            },
            "end": {
              "line": 24,
              "column": 11
            }
          },
          "id": {
            "type": "Identifier",
            "start": 462,
            "end": 485,
            "loc": {
              "start": {
                "line": 21,
                "column": 6
              },
              "end": {
                "line": 21,
                "column": 29
              }
            },
            "name": "UploadProgressContainer"
          },
          "init": {
            "type": "CallExpression",
            "start": 488,
            "end": 534,
            "loc": {
              "start": {
                "line": 21,
                "column": 32
              },
              "end": {
                "line": 24,
                "column": 11
              }
            },
            "callee": {
              "type": "CallExpression",
              "start": 488,
              "end": 526,
              "loc": {
                "start": {
                  "line": 21,
                  "column": 32
                },
                "end": {
                  "line": 24,
                  "column": 3
                }
              },
              "callee": {
                "type": "Identifier",
                "start": 488,
                "end": 495,
                "loc": {
                  "start": {
                    "line": 21,
                    "column": 32
                  },
                  "end": {
                    "line": 21,
                    "column": 39
                  }
                },
                "name": "connect"
              },
              "arguments": [
                {
                  "type": "Identifier",
                  "start": 499,
                  "end": 514,
                  "loc": {
                    "start": {
                      "line": 22,
                      "column": 2
                    },
                    "end": {
                      "line": 22,
                      "column": 17
                    }
                  },
                  "name": "mapStateToProps"
                },
                {
                  "type": "Literal",
                  "start": 518,
                  "end": 522,
                  "loc": {
                    "start": {
                      "line": 23,
                      "column": 2
                    },
                    "end": {
                      "line": 23,
                      "column": 6
                    }
                  },
                  "value": null,
                  "rawValue": null,
                  "raw": "null"
                }
              ]
            },
            "arguments": [
              {
                "type": "Identifier",
                "start": 527,
                "end": 533,
                "loc": {
                  "start": {
                    "line": 24,
                    "column": 4
                  },
                  "end": {
                    "line": 24,
                    "column": 10
                  }
                },
                "name": "Upload"
              }
            ]
          }
        }
      ],
      "kind": "const",
      "name": "_",
      "leadingComments": [],
      "trailingComments": []
    },
    {
      "type": "Identifier",
      "start": 538,
      "end": 577,
      "loc": {
        "start": {
          "line": 26,
          "column": 2
        },
        "end": {
          "line": 26,
          "column": 41
        }
      },
      "declaration": {
        "type": "Identifier",
        "start": 553,
        "end": 576,
        "loc": {
          "start": {
            "line": 26,
            "column": 17
          },
          "end": {
            "line": 26,
            "column": 40
          }
        },
        "name": "UploadProgressContainer"
      },
      "name": "_",
      "leadingComments": [],
      "trailingComments": []
    },
    {
      "type": "ExportDefaultDeclaration",
      "start": 538,
      "end": 577,
      "loc": {
        "start": {
          "line": 26,
          "column": 2
        },
        "end": {
          "line": 26,
          "column": 41
        }
      },
      "declaration": {
        "type": "VariableDeclaration",
        "start": 456,
        "end": 534,
        "loc": {
          "start": {
            "line": 21,
            "column": 0
          },
          "end": {
            "line": 24,
            "column": 11
          }
        },
        "declarations": [
          {
            "type": "VariableDeclarator",
            "start": 462,
            "end": 534,
            "loc": {
              "start": {
                "line": 21,
                "column": 6
              },
              "end": {
                "line": 24,
                "column": 11
              }
            },
            "id": {
              "type": "Identifier",
              "start": 462,
              "end": 485,
              "loc": {
                "start": {
                  "line": 21,
                  "column": 6
                },
                "end": {
                  "line": 21,
                  "column": 29
                }
              },
              "name": "UploadProgressContainer"
            },
            "init": {
              "type": "CallExpression",
              "start": 488,
              "end": 534,
              "loc": {
                "start": {
                  "line": 21,
                  "column": 32
                },
                "end": {
                  "line": 24,
                  "column": 11
                }
              },
              "callee": {
                "type": "CallExpression",
                "start": 488,
                "end": 526,
                "loc": {
                  "start": {
                    "line": 21,
                    "column": 32
                  },
                  "end": {
                    "line": 24,
                    "column": 3
                  }
                },
                "callee": {
                  "type": "Identifier",
                  "start": 488,
                  "end": 495,
                  "loc": {
                    "start": {
                      "line": 21,
                      "column": 32
                    },
                    "end": {
                      "line": 21,
                      "column": 39
                    }
                  },
                  "name": "connect"
                },
                "arguments": [
                  {
                    "type": "Identifier",
                    "start": 499,
                    "end": 514,
                    "loc": {
                      "start": {
                        "line": 22,
                        "column": 2
                      },
                      "end": {
                        "line": 22,
                        "column": 17
                      }
                    },
                    "name": "mapStateToProps"
                  },
                  {
                    "type": "Literal",
                    "start": 518,
                    "end": 522,
                    "loc": {
                      "start": {
                        "line": 23,
                        "column": 2
                      },
                      "end": {
                        "line": 23,
                        "column": 6
                      }
                    },
                    "value": null,
                    "rawValue": null,
                    "raw": "null"
                  }
                ]
              },
              "arguments": [
                {
                  "type": "Identifier",
                  "start": 527,
                  "end": 533,
                  "loc": {
                    "start": {
                      "line": 24,
                      "column": 4
                    },
                    "end": {
                      "line": 24,
                      "column": 10
                    }
                  },
                  "name": "Upload"
                }
              ]
            }
          }
        ],
        "kind": "const",
        "leadingComments": [],
        "trailingComments": []
      }
    }
  ]
}